^C:\USERS\RENGO\SOURCE\REPOS\CONSOLEAPPLICATION3\CONSOLEAPPLICATION3.CPP
C:\USERS\RENGO\SOURCE\REPOS\CONSOLEAPPLICATION3\DEBUG\VC142.PDB
C:\USERS\RENGO\SOURCE\REPOS\CONSOLEAPPLICATION3\DEBUG\VC142.IDB
C:\USERS\RENGO\SOURCE\REPOS\CONSOLEAPPLICATION3\DEBUG\CONSOLEAPPLICATION3.OBJ
